<?xml version="1.0"?>
<svg  xmlns="http://www.w3.org/2000/svg">
 <!-- Created with SVG-edit - http://svg-edit.googlecode.com/ -->
 <g>
  <title>Layer 2</title>
  <path id="svg_1" d="m16,8.286c-7.546,0 -13.5,7.714 -13.5,7.714s5.954,7.715 13.5,7.715c5.771,0 13.5,-7.715 13.5,-7.715s-7.729,-7.714 -13.5,-7.714zm0,12.520999c-2.649,0 -4.807,-2.157 -4.807,-4.806999s2.158,-4.807 4.807,-4.807s4.806999,2.158 4.806999,4.807s-2.157999,4.806999 -4.806999,4.806999zm0,-7.612999c-1.549,0 -2.806,1.256 -2.806,2.806c0,1.549999 1.256,2.806 2.806,2.806c1.549999,0 2.806,-1.256001 2.806,-2.806c0,-1.549 -1.256001,-2.806 -2.806,-2.806z" class="consumption"/>
 </g>
</svg>